{
    "": "api\/user",
    "product.list.api": "api\/products",
    "product.save.api": "api\/products\/save",
    "weather": "weather",
    "orders.list": "orders",
    "order.edit": "orders\/edit\/{order}",
    "order.store": "orders",
    "product.list": "products"
}